%YAML 1.1
%TAG !u! tag:unity3d.com,2011:
--- !u!114 &11400000
MonoBehaviour:
  m_ObjectHideFlags: 0
  m_CorrespondingSourceObject: {fileID: 0}
  m_PrefabInstance: {fileID: 0}
  m_PrefabAsset: {fileID: 0}
  m_GameObject: {fileID: 0}
  m_Enabled: 1
  m_EditorHideFlags: 0
  m_Script: {fileID: -1893448595, guid: a040fb66244a7f54289914d98ea4ef7d, type: 3}
  m_Name: bolt_pickUp_items
  m_EditorClassIdentifier: 
  _data:
    _json: '{"graph":{"variables":{"collection":{"$content":[{"name":"quantity_evidences","value":null,"$version":"A"},{"name":"role_icon","value":null,"$version":"A"},{"name":"isMurder","value":{"$content":false,"$type":"System.Boolean"},"$version":"A"},{"name":"evidences_parent","value":null,"$version":"A"},{"name":"quantity_bonuses","value":null,"$version":"A"}],"$version":"A"},"$version":"A"},"controlInputDefinitions":[],"controlOutputDefinitions":[],"valueInputDefinitions":[],"valueOutputDefinitions":[],"title":null,"summary":null,"pan":{"x":1699.541,"y":-162.6924},"zoom":1.0,"elements":[{"chainable":false,"member":{"name":"ScreenPointToRay","parameterTypes":["UnityEngine.Vector3"],"targetType":"UnityEngine.Camera","targetTypeName":"UnityEngine.Camera","$version":"A"},"defaultValues":{"target":null,"%pos":{"x":0.0,"y":0.0,"z":0.0,"$type":"UnityEngine.Vector3"}},"position":{"x":-527.0,"y":-134.0},"guid":"a634015d-0609-4544-87b7-71375724c56f","$version":"A","$type":"Bolt.InvokeMember","$id":"14"},{"coroutine":false,"defaultValues":{},"position":{"x":-884.0,"y":-483.0},"guid":"2a67c7aa-0a54-4367-b40a-5a1d84c86f42","$version":"A","$type":"Bolt.Start","$id":"17"},{"chainable":false,"member":{"name":"Find","parameterTypes":["System.String"],"targetType":"UnityEngine.GameObject","targetTypeName":"UnityEngine.GameObject","$version":"A"},"defaultValues":{"%name":{"$content":"","$type":"System.String"}},"position":{"x":1164.0,"y":-480.0},"guid":"afb80553-5a47-45d9-9c1d-bd6c22502c3d","$version":"A","$type":"Bolt.InvokeMember","$id":"19"},{"type":"System.String","value":{"$content":"evidences_parent","$type":"System.String"},"defaultValues":{},"position":{"x":977.0,"y":-389.0},"guid":"c4145afb-d6bf-4bc8-8328-81249eb7e44d","$version":"A","$type":"Bolt.Literal","$id":"22"},{"kind":"Graph","defaultValues":{"name":{"$content":"quantity_evidences","$type":"System.String"}},"position":{"x":-416.0,"y":-485.0},"guid":"7ec119fe-080e-468d-a402-580158e8c5d9","$version":"A","$type":"Bolt.SetVariable","$id":"24"},{"defaultValues":{"dividend":{"$content":1.0,"$type":"System.Single"},"divisor":{"$content":3.0,"$type":"System.Single"}},"position":{"x":2863.0,"y":-72.0},"guid":"b9aefd39-0523-4c22-bb0a-7115e06e49ed","$version":"A","$type":"Bolt.ScalarDivide","$id":"26"},{"specifyFallback":false,"kind":"Graph","defaultValues":{"name":{"$content":"role_icon","$type":"System.String"}},"position":{"x":4788.0,"y":-78.0},"guid":"ffcbe50f-c437-4081-b425-72232f64d55f","$version":"A","$type":"Bolt.GetVariable","$id":"28"},{"specifyFallback":false,"kind":"Graph","defaultValues":{"name":{"$content":"isMurder","$type":"System.String"}},"position":{"x":1356.0,"y":-110.0},"guid":"5bcd0022-2fbf-4142-90e9-36076b18920c","$version":"A","$type":"Bolt.GetVariable","$id":"30"},{"chainable":false,"member":{"name":"GetButtonDown","parameterTypes":["System.String"],"targetType":"UnityEngine.Input","targetTypeName":"UnityEngine.Input","$version":"A"},"defaultValues":{"%buttonName":{"$content":"Pick
      Up","$type":"System.String"}},"position":{"x":73.0,"y":-193.0},"guid":"3c712ec0-eb81-4ed6-afe6-6e1134b04afb","$version":"A","$type":"Bolt.InvokeMember","$id":"32"},{"type":"UnityEngine.LayerMask","value":{"value":2048,"$type":"UnityEngine.LayerMask"},"defaultValues":{},"position":{"x":-348.0,"y":-35.0},"guid":"44ce5995-a80c-4cb6-84aa-e5ca179b89e7","$version":"A","$type":"Bolt.Literal","$id":"35"},{"member":{"name":"collider","parameterTypes":null,"targetType":"UnityEngine.RaycastHit","targetTypeName":"UnityEngine.RaycastHit","$version":"A"},"defaultValues":{},"position":{"x":98.0,"y":-30.0},"guid":"a98bacb0-4c85-4fd7-aa4b-6dd02bbb0ab9","$version":"A","$type":"Bolt.GetMember","$id":"37"},{"coroutine":false,"defaultValues":{},"position":{"x":-889.0,"y":-133.0},"guid":"88b93003-4365-425f-afdf-29dc9375a789","$version":"A","$type":"Bolt.Update","$id":"40"},{"chainable":false,"member":{"name":"TryParse","parameterTypes":["System.String","System.Int32&"],"targetType":"System.Int32","targetTypeName":"System.Int32","$version":"A"},"defaultValues":{"%s":{"$content":"","$type":"System.String"}},"position":{"x":2520.0,"y":-191.0},"guid":"cf18cd3f-0d0d-41f7-8480-9b6ae4a9d014","$version":"A","$type":"Bolt.InvokeMember","$id":"42"},{"chainable":false,"member":{"name":"ToString","parameterTypes":[],"targetType":"System.Int32","targetTypeName":"System.Int32","$version":"A"},"defaultValues":{"target":{"$content":0,"$type":"System.Int32"}},"position":{"x":2864.0,"y":-191.0},"guid":"90b76c90-7144-45e1-94f7-21b53df229cd","$version":"A","$type":"Bolt.InvokeMember","$id":"45"},{"specifyFallback":false,"kind":"Graph","defaultValues":{"name":{"$content":"quantity_bonuses","$type":"System.String"}},"position":{"x":3364.0,"y":46.0},"guid":"e7ff5f84-e092-46e1-934d-e91b898974d3","$version":"A","$type":"Bolt.GetVariable","$id":"48"},{"specifyFallback":false,"kind":"Graph","defaultValues":{"name":{"$content":"evidences_parent","$type":"System.String"}},"position":{"x":915.0,"y":-110.0},"guid":"bce7b4b4-1d45-4dd5-bab7-b58198804686","$version":"A","$type":"Bolt.GetVariable","$id":"50"},{"chainable":false,"member":{"name":"sprite","parameterTypes":null,"targetType":"UnityEngine.UI.Image","targetTypeName":"UnityEngine.UI.Image","$version":"A"},"defaultValues":{"target":null,"input":{"$content":0,"$type":"UnityEngine.Object"}},"position":{"x":1842.0,"y":-62.0},"guid":"af42bce3-9120-45e8-9565-a712841f5daf","$version":"A","$type":"Bolt.SetMember","$id":"52"},{"type":"System.String","value":{"$content":"role_icon","$type":"System.String"},"defaultValues":{},"position":{"x":-202.0,"y":-398.0},"guid":"88cf6846-b08f-4a84-8e96-1904ee832c49","$version":"A","$type":"Bolt.Literal","$id":"55"},{"specifyFallback":false,"kind":"Graph","defaultValues":{"name":{"$content":"evidences_parent","$type":"System.String"}},"position":{"x":4015.0,"y":-73.0},"guid":"692d3a74-559b-4f31-87a9-b282b98e6858","$version":"A","$type":"Bolt.GetVariable","$id":"57"},{"specifyFallback":false,"kind":"Graph","defaultValues":{"name":{"$content":"isMurder","$type":"System.String"}},"position":{"x":4472.0,"y":-78.0},"guid":"3ee325e7-a8b7-44f4-9894-485e330b97ab","$version":"A","$type":"Bolt.GetVariable","$id":"59"},{"defaultValues":{},"position":{"x":4640.0,"y":-150.0},"guid":"e863672f-1ede-4713-9702-3746d29b5472","$version":"A","$type":"Bolt.Branch","$id":"61"},{"defaultValues":{},"position":{"x":1528.0,"y":-192.0},"guid":"efbe76e3-2ce5-4fd4-8204-f8362921b642","$version":"A","$type":"Bolt.Branch","$id":"63"},{"chainable":false,"member":{"name":"sprite","parameterTypes":null,"targetType":"UnityEngine.UI.Image","targetTypeName":"UnityEngine.UI.Image","$version":"A"},"defaultValues":{"target":null,"input":{"$content":1,"$type":"UnityEngine.Object"}},"position":{"x":3090.0,"y":-482.0},"guid":"30cb5a35-204f-40fc-80af-2632339ccc9e","$version":"A","$type":"Bolt.SetMember","$id":"65"},{"chainable":false,"member":{"name":"anchoredPosition","parameterTypes":null,"targetType":"UnityEngine.RectTransform","targetTypeName":"UnityEngine.RectTransform","$version":"A"},"defaultValues":{"target":null,"input":{"x":31.2,"y":-150.0,"$type":"UnityEngine.Vector2"}},"position":{"x":2357.0,"y":-482.0},"guid":"af96969b-d839-49c4-ae21-fd4ca1044e36","$version":"A","$type":"Bolt.SetMember","$id":"68"},{"specifyFallback":false,"kind":"Graph","defaultValues":{"name":{"$content":"role_icon","$type":"System.String"}},"position":{"x":2912.0,"y":-410.0},"guid":"b499e200-7a60-4afa-b0e5-252eb0027dba","$version":"A","$type":"Bolt.GetVariable","$id":"71"},{"chainable":false,"member":{"name":"sprite","parameterTypes":null,"targetType":"UnityEngine.UI.Image","targetTypeName":"UnityEngine.UI.Image","$version":"A"},"defaultValues":{"target":null,"input":{"$content":2,"$type":"UnityEngine.Object"}},"position":{"x":3090.0,"y":-346.0},"guid":"b5b0831a-54da-48d7-8f71-ef5ab70d2cf4","$version":"A","$type":"Bolt.SetMember","$id":"73"},{"specifyFallback":false,"kind":"Graph","defaultValues":{"name":{"$content":"evidences_parent","$type":"System.String"}},"position":{"x":2139.0,"y":-405.0},"guid":"2c6d7f7b-b054-4ebc-9eb1-f38cb3f11b58","$version":"A","$type":"Bolt.GetVariable","$id":"76"},{"specifyFallback":false,"kind":"Graph","defaultValues":{"name":{"$content":"isMurder","$type":"System.String"}},"position":{"x":2596.0,"y":-410.0},"guid":"a2723a68-16f7-4049-a1ba-8fa8ae8bdc64","$version":"A","$type":"Bolt.GetVariable","$id":"78"},{"defaultValues":{},"position":{"x":2764.0,"y":-482.0},"guid":"0aced8aa-67d1-4e4c-b00b-b0bc4df6c7ae","$version":"A","$type":"Bolt.Branch","$id":"80"},{"defaultValues":{},"position":{"x":304.0,"y":-124.0},"guid":"9633c88e-dddb-4fc0-ad4e-c83ce68a321f","$version":"A","$type":"Bolt.And","$id":"82"},{"member":{"name":"isMurder","parameterTypes":null,"targetType":"sc_fps_controller","targetTypeName":"sc_fps_controller","$version":"A"},"defaultValues":{"target":null},"position":{"x":635.0,"y":-400.0},"guid":"b1cb7c7f-5883-4b78-8c89-9c5b815b24d4","$version":"A","$type":"Bolt.GetMember","$id":"84"},{"chainable":false,"member":{"name":"sprite","parameterTypes":null,"targetType":"UnityEngine.UI.Image","targetTypeName":"UnityEngine.UI.Image","$version":"A"},"defaultValues":{"target":null,"input":{"$content":3,"$type":"UnityEngine.Object"}},"position":{"x":4966.0,"y":-14.0},"guid":"33bfcf22-c35a-4145-bd97-1835897a4a6a","$version":"A","$type":"Bolt.SetMember","$id":"87"},{"kind":"Graph","defaultValues":{"name":{"$content":"role_icon","$type":"System.String"}},"position":{"x":126.0,"y":-485.0},"guid":"74ca5816-0b5c-40e1-aa44-7de6061fa1a8","$version":"A","$type":"Bolt.SetVariable","$id":"90"},{"kind":"Graph","defaultValues":{"name":{"$content":"isMurder","$type":"System.String"}},"position":{"x":827.0,"y":-483.0},"guid":"f77f1210-47ce-4ae6-90c7-f6cdd6eb5429","$version":"A","$type":"Bolt.SetVariable","$id":"92"},{"chainable":false,"member":{"name":"sprite","parameterTypes":null,"targetType":"UnityEngine.UI.Image","targetTypeName":"UnityEngine.UI.Image","$version":"A"},"defaultValues":{"target":null,"input":{"$content":4,"$type":"UnityEngine.Object"}},"position":{"x":4966.0,"y":-150.0},"guid":"4a60ad1a-c8b3-4e58-9122-fcbd2adc33f6","$version":"A","$type":"Bolt.SetMember","$id":"94"},{"chainable":false,"member":{"name":"anchoredPosition","parameterTypes":null,"targetType":"UnityEngine.RectTransform","targetTypeName":"UnityEngine.RectTransform","$version":"A"},"defaultValues":{"target":null,"input":{"x":31.2,"y":-150.0,"$type":"UnityEngine.Vector2"}},"position":{"x":4233.0,"y":-150.0},"guid":"0c7ad601-a2c3-467a-84af-a7ea10b12acc","$version":"A","$type":"Bolt.SetMember","$id":"97"},{"defaultValues":{"duration":{"$content":2.0,"$type":"System.Single"},"unscaledTime":{"$content":false,"$type":"System.Boolean"}},"position":{"x":3764.0,"y":-188.0},"guid":"e89b9cbe-594e-4f1e-a8bc-d15b1545f3c9","$version":"A","$type":"Bolt.Timer","$id":"100"},{"chainable":false,"member":{"name":"anchoredPosition","parameterTypes":null,"targetType":"UnityEngine.RectTransform","targetTypeName":"UnityEngine.RectTransform","$version":"A"},"defaultValues":{"target":null,"input":{"x":31.2,"y":-52.5,"$type":"UnityEngine.Vector2"}},"position":{"x":1138.0,"y":-192.0},"guid":"84626202-bd90-4224-85b6-eb28a3f8e9b6","$version":"A","$type":"Bolt.SetMember","$id":"102"},{"chainable":false,"member":{"name":"Find","parameterTypes":["System.String"],"targetType":"UnityEngine.GameObject","targetTypeName":"UnityEngine.GameObject","$version":"A"},"defaultValues":{"%name":{"$content":"","$type":"System.String"}},"position":{"x":462.0,"y":-481.0},"guid":"6e614931-b963-4735-9ef0-4155f79564d3","$version":"A","$type":"Bolt.InvokeMember","$id":"105"},{"chainable":false,"member":{"name":"ToString","parameterTypes":[],"targetType":"System.Int32","targetTypeName":"System.Int32","$version":"A"},"defaultValues":{"target":{"$content":0,"$type":"System.Int32"}},"position":{"x":3227.0,"y":-50.0},"guid":"480c2881-d561-4a2b-b7cb-3fa6be9e2f16","$version":"A","$type":"Bolt.InvokeMember","$id":"108"},{"rounding":"Floor","defaultValues":{},"position":{"x":3051.0,"y":22.0},"guid":"3614f8a6-6576-4a9b-ba3d-090278cfba25","$version":"A","$type":"Bolt.ScalarRound","$id":"111"},{"chainable":false,"member":{"name":"text","parameterTypes":null,"targetType":"UnityEngine.UI.Text","targetTypeName":"UnityEngine.UI.Text","$version":"A"},"defaultValues":{"target":null,"input":{"$content":"","$type":"System.String"}},"position":{"x":3247.0,"y":-191.0},"guid":"28e39b5c-15fe-482f-8c7f-a5f51ba3abe4","$version":"A","$type":"Bolt.SetMember","$id":"113"},{"member":{"name":"mousePosition","parameterTypes":null,"targetType":"UnityEngine.Input","targetTypeName":"UnityEngine.Input","$version":"A"},"defaultValues":{},"position":{"x":-759.0,"y":-51.0},"guid":"e6021073-4f87-4e2f-9118-8cc797574d02","$version":"A","$type":"Bolt.GetMember","$id":"116"},{"outputCount":2,"defaultValues":{},"position":{"x":2178.0,"y":-194.0},"guid":"ecfbb65d-4d95-4bfa-8bb0-1234cb5e936a","$version":"A","$type":"Bolt.Sequence","$id":"119"},{"kind":"Graph","defaultValues":{"name":{"$content":"evidences_parent","$type":"System.String"}},"position":{"x":1358.0,"y":-483.0},"guid":"38a30330-fb67-4034-a991-96b79fbd5c17","$version":"A","$type":"Bolt.SetVariable","$id":"121"},{"chainable":false,"member":{"name":"Raycast","parameterTypes":["UnityEngine.Ray","UnityEngine.RaycastHit&","System.Single","System.Int32"],"targetType":"UnityEngine.Physics","targetTypeName":"UnityEngine.Physics","$version":"A"},"defaultValues":{"%ray":{"origin":{"x":0.0,"y":0.0,"z":0.0},"direction":{"x":0.0,"y":0.0,"z":0.0},"$type":"UnityEngine.Ray"},"%maxDistance":{"$content":2.0,"$type":"System.Single"},"%layerMask":{"$content":0,"$type":"System.Int32"}},"position":{"x":-187.0,"y":-135.0},"guid":"955acc04-c590-49a6-ba0c-196d87380984","$version":"A","$type":"Bolt.InvokeMember","$id":"123"},{"chainable":false,"member":{"name":"Destroy","parameterTypes":["UnityEngine.Object"],"targetType":"UnityEngine.GameObject","targetTypeName":"UnityEngine.GameObject","$version":"A"},"defaultValues":{"%obj":null},"position":{"x":774.0,"y":-193.0},"guid":"88b48402-8989-461c-a7f3-92d6da97dc70","$version":"A","$type":"Bolt.InvokeMember","$id":"126"},{"defaultValues":{},"position":{"x":451.0,"y":-193.0},"guid":"f63b3e2b-057a-4c61-a63f-04b4ba8d50d6","$version":"A","$type":"Bolt.Branch","$id":"129"},{"member":{"name":"text","parameterTypes":null,"targetType":"UnityEngine.UI.Text","targetTypeName":"UnityEngine.UI.Text","$version":"A"},"defaultValues":{"target":null},"position":{"x":2350.0,"y":-113.0},"guid":"32c13e32-37d9-4840-b648-2502732f4a5c","$version":"A","$type":"Bolt.GetMember","$id":"131"},{"chainable":false,"member":{"name":"Find","parameterTypes":["System.String"],"targetType":"UnityEngine.GameObject","targetTypeName":"UnityEngine.GameObject","$version":"A"},"defaultValues":{"%name":{"$content":"","$type":"System.String"}},"position":{"x":-61.0,"y":-482.0},"guid":"bce7ce93-fe63-403e-b409-a85c6aecddda","$version":"A","$type":"Bolt.InvokeMember","$id":"134"},{"chainable":false,"member":{"name":"sprite","parameterTypes":null,"targetType":"UnityEngine.UI.Image","targetTypeName":"UnityEngine.UI.Image","$version":"A"},"defaultValues":{"target":null,"input":{"$content":5,"$type":"UnityEngine.Object"}},"position":{"x":1843.0,"y":-190.0},"guid":"63a2e007-c9ff-45b2-be6f-49999d8dd934","$version":"A","$type":"Bolt.SetMember","$id":"137"},{"chainable":false,"member":{"name":"Find","parameterTypes":["System.String"],"targetType":"UnityEngine.GameObject","targetTypeName":"UnityEngine.GameObject","$version":"A"},"defaultValues":{"%name":{"$content":"","$type":"System.String"}},"position":{"x":-591.0,"y":-482.0},"guid":"36103996-164d-4cba-80f8-b6c17fe0e8d7","$version":"A","$type":"Bolt.InvokeMember","$id":"140"},{"type":"System.String","value":{"$content":"quantity_evidences","$type":"System.String"},"defaultValues":{},"position":{"x":-788.0,"y":-407.0},"guid":"dda36e3d-9eaa-427d-a9a5-bcc78429b0aa","$version":"A","$type":"Bolt.Literal","$id":"143"},{"type":"UnityEngine.Collider","instance":true,"static":false,"defaultValues":{"target":null},"position":{"x":572.0,"y":-112.0},"guid":"ecbbf175-24e1-443d-8f00-a5b92fca06e6","$version":"A","$type":"Bolt.Expose","$id":"145"},{"kind":"Graph","defaultValues":{"name":{"$content":"quantity_bonuses","$type":"System.String"}},"position":{"x":1929.0,"y":-484.0},"guid":"3134cfcc-423a-4757-8876-e961f0ddbd83","$version":"A","$type":"Bolt.SetVariable","$id":"147"},{"type":"System.String","value":{"$content":"pr_player(Clone)","$type":"System.String"},"defaultValues":{},"position":{"x":275.0,"y":-390.0},"guid":"f4abc32a-3681-4e30-9d4a-87a9e3fd0828","$version":"A","$type":"Bolt.Literal","$id":"149"},{"chainable":false,"member":{"name":"text","parameterTypes":null,"targetType":"UnityEngine.UI.Text","targetTypeName":"UnityEngine.UI.Text","$version":"A"},"defaultValues":{"target":null,"input":{"$content":"","$type":"System.String"}},"position":{"x":3591.0,"y":-48.0},"guid":"ee82adf0-d050-4e4b-ab84-c8581269385b","$version":"A","$type":"Bolt.SetMember","$id":"151"},{"specifyFallback":false,"kind":"Graph","defaultValues":{"name":{"$content":"role_icon","$type":"System.String"}},"position":{"x":1662.0,"y":-114.0},"guid":"fd0ba086-7da3-4dc2-888f-284cd8721bd4","$version":"A","$type":"Bolt.GetVariable","$id":"154"},{"specifyFallback":false,"kind":"Graph","defaultValues":{"name":{"$content":"quantity_evidences","$type":"System.String"}},"position":{"x":2113.0,"y":-77.0},"guid":"49cbc2c4-484c-45f8-b18a-f4b78317536e","$version":"A","$type":"Bolt.GetVariable","$id":"156"},{"specifyFallback":false,"kind":"Graph","defaultValues":{"name":{"$content":"quantity_evidences","$type":"System.String"}},"position":{"x":3021.0,"y":-119.0},"guid":"b55ffe3b-435d-48d8-96f2-065c22139e9b","$version":"A","$type":"Bolt.GetVariable","$id":"158"},{"chainable":false,"member":{"name":"Find","parameterTypes":["System.String"],"targetType":"UnityEngine.GameObject","targetTypeName":"UnityEngine.GameObject","$version":"A"},"defaultValues":{"%name":{"$content":"","$type":"System.String"}},"position":{"x":1741.0,"y":-481.0},"guid":"1738f4b9-1350-43a1-ae28-3fd088cdb70b","$version":"A","$type":"Bolt.InvokeMember","$id":"160"},{"defaultValues":{"b":{"$content":1.0,"$type":"System.Single"}},"position":{"x":2693.0,"y":-124.0},"guid":"b99efe47-bae3-4b63-bcff-407e8b2236f7","$version":"A","$type":"Bolt.ScalarAdd","$id":"163"},{"type":"System.String","value":{"$content":"quantity_bonuses","$type":"System.String"},"defaultValues":{},"position":{"x":1554.0,"y":-390.0},"guid":"00f46ea5-b2b2-48cf-a017-0b3082b6dc18","$version":"A","$type":"Bolt.Literal","$id":"165"},{"sourceUnit":{"$ref":"108"},"sourceKey":"exit","destinationUnit":{"$ref":"151"},"destinationKey":"assign","guid":"1906db8e-586d-4af4-b552-6f5bce468003","$type":"Bolt.ControlConnection"},{"sourceUnit":{"$ref":"134"},"sourceKey":"exit","destinationUnit":{"$ref":"90"},"destinationKey":"assign","guid":"eb4ad223-d5c1-4f39-912b-5967d6534977","$type":"Bolt.ControlConnection"},{"sourceUnit":{"$ref":"119"},"sourceKey":"0","destinationUnit":{"$ref":"42"},"destinationKey":"enter","guid":"0fc6de3f-5b61-47bc-931d-036d95baf363","$type":"Bolt.ControlConnection"},{"sourceUnit":{"$ref":"113"},"sourceKey":"assigned","destinationUnit":{"$ref":"100"},"destinationKey":"start","guid":"766deb57-0d2d-4c53-93a8-ac843596e0a9","$type":"Bolt.ControlConnection"},{"sourceUnit":{"$ref":"126"},"sourceKey":"exit","destinationUnit":{"$ref":"102"},"destinationKey":"assign","guid":"4b39b0dd-aa25-4d63-94de-75f2a50a3554","$type":"Bolt.ControlConnection"},{"sourceUnit":{"$ref":"14"},"sourceKey":"exit","destinationUnit":{"$ref":"123"},"destinationKey":"enter","guid":"f95f54cb-664e-47ec-a8d4-b5d9e3ccac21","$type":"Bolt.ControlConnection"},{"sourceUnit":{"$ref":"129"},"sourceKey":"ifTrue","destinationUnit":{"$ref":"126"},"destinationKey":"enter","guid":"668e5035-d99c-4d48-86fd-075a40672804","$type":"Bolt.ControlConnection"},{"sourceUnit":{"$ref":"90"},"sourceKey":"assigned","destinationUnit":{"$ref":"105"},"destinationKey":"enter","guid":"a91650cb-ee68-4f83-ba11-275ceebb08a9","$type":"Bolt.ControlConnection"},{"sourceUnit":{"$ref":"100"},"sourceKey":"completed","destinationUnit":{"$ref":"97"},"destinationKey":"assign","guid":"01dd8e29-6c64-4e2f-ad9e-24a922dcc961","$type":"Bolt.ControlConnection"},{"sourceUnit":{"$ref":"32"},"sourceKey":"exit","destinationUnit":{"$ref":"129"},"destinationKey":"enter","guid":"12ce9ef1-968c-48ee-a339-5f47838483fa","$type":"Bolt.ControlConnection"},{"sourceUnit":{"$ref":"151"},"sourceKey":"assigned","destinationUnit":{"$ref":"100"},"destinationKey":"start","guid":"b7990ece-5aaf-4929-8666-2049fc141ecc","$type":"Bolt.ControlConnection"},{"sourceUnit":{"$ref":"40"},"sourceKey":"trigger","destinationUnit":{"$ref":"14"},"destinationKey":"enter","guid":"0fe1d09a-37f6-4774-bb0a-2a82917c4b7b","$type":"Bolt.ControlConnection"},{"sourceUnit":{"$ref":"17"},"sourceKey":"trigger","destinationUnit":{"$ref":"140"},"destinationKey":"enter","guid":"0f1e296b-5a90-4a1a-b181-f52c516103e6","$type":"Bolt.ControlConnection"},{"sourceUnit":{"$ref":"140"},"sourceKey":"exit","destinationUnit":{"$ref":"24"},"destinationKey":"assign","guid":"abc0b702-88d3-420a-8e1e-bd70b35e3252","$type":"Bolt.ControlConnection"},{"sourceUnit":{"$ref":"123"},"sourceKey":"exit","destinationUnit":{"$ref":"32"},"destinationKey":"enter","guid":"5e688eb8-b0b5-4975-aa82-17e8983a71bb","$type":"Bolt.ControlConnection"},{"sourceUnit":{"$ref":"42"},"sourceKey":"exit","destinationUnit":{"$ref":"45"},"destinationKey":"enter","guid":"bb9296a8-6f3b-4edc-b038-fa8548319b9a","$type":"Bolt.ControlConnection"},{"sourceUnit":{"$ref":"45"},"sourceKey":"exit","destinationUnit":{"$ref":"113"},"destinationKey":"assign","guid":"7cd1ac89-cc25-4464-9b12-9e5f00fe2a56","$type":"Bolt.ControlConnection"},{"sourceUnit":{"$ref":"119"},"sourceKey":"1","destinationUnit":{"$ref":"108"},"destinationKey":"enter","guid":"d5bc72ca-8e57-40e8-9c51-7b4b33eb9772","$type":"Bolt.ControlConnection"},{"sourceUnit":{"$ref":"52"},"sourceKey":"assigned","destinationUnit":{"$ref":"119"},"destinationKey":"enter","guid":"9add285a-6794-4026-b524-5952794e0add","$type":"Bolt.ControlConnection"},{"sourceUnit":{"$ref":"137"},"sourceKey":"assigned","destinationUnit":{"$ref":"119"},"destinationKey":"enter","guid":"36f00a92-eb4d-44d2-b165-0e424d5a0ed5","$type":"Bolt.ControlConnection"},{"sourceUnit":{"$ref":"147"},"sourceKey":"assigned","destinationUnit":{"$ref":"68"},"destinationKey":"assign","guid":"19f60fb8-428d-4702-a7cb-5412b9ef21eb","$type":"Bolt.ControlConnection"},{"sourceUnit":{"$ref":"80"},"sourceKey":"ifFalse","destinationUnit":{"$ref":"73"},"destinationKey":"assign","guid":"6f690cd8-0c46-4384-bf9c-fbd4225b9c9c","$type":"Bolt.ControlConnection"},{"sourceUnit":{"$ref":"68"},"sourceKey":"assigned","destinationUnit":{"$ref":"80"},"destinationKey":"enter","guid":"2e445743-dd14-4cf0-ba9f-269c97e34513","$type":"Bolt.ControlConnection"},{"sourceUnit":{"$ref":"80"},"sourceKey":"ifTrue","destinationUnit":{"$ref":"65"},"destinationKey":"assign","guid":"4138606b-ba91-4ba1-a2f0-73946d83460f","$type":"Bolt.ControlConnection"},{"sourceUnit":{"$ref":"105"},"sourceKey":"exit","destinationUnit":{"$ref":"92"},"destinationKey":"assign","guid":"1d32ff27-511c-4f19-a013-aa56e81b8b16","$type":"Bolt.ControlConnection"},{"sourceUnit":{"$ref":"102"},"sourceKey":"assigned","destinationUnit":{"$ref":"63"},"destinationKey":"enter","guid":"5fa25f09-c375-43b6-acab-3bb997b93e7d","$type":"Bolt.ControlConnection"},{"sourceUnit":{"$ref":"92"},"sourceKey":"assigned","destinationUnit":{"$ref":"19"},"destinationKey":"enter","guid":"2f576241-f730-4ba4-aa28-fc0984430f4d","$type":"Bolt.ControlConnection"},{"sourceUnit":{"$ref":"19"},"sourceKey":"exit","destinationUnit":{"$ref":"121"},"destinationKey":"assign","guid":"55158f87-aa14-4926-87e0-358a1709401f","$type":"Bolt.ControlConnection"},{"sourceUnit":{"$ref":"97"},"sourceKey":"assigned","destinationUnit":{"$ref":"61"},"destinationKey":"enter","guid":"92adf018-9ba4-4025-9e6c-651d7f1f0206","$type":"Bolt.ControlConnection"},{"sourceUnit":{"$ref":"61"},"sourceKey":"ifTrue","destinationUnit":{"$ref":"94"},"destinationKey":"assign","guid":"93e3301f-c686-4c6e-8ea0-6a8720bac77a","$type":"Bolt.ControlConnection"},{"sourceUnit":{"$ref":"61"},"sourceKey":"ifFalse","destinationUnit":{"$ref":"87"},"destinationKey":"assign","guid":"be812f58-74c4-4fc2-9d3b-5cf493594eff","$type":"Bolt.ControlConnection"},{"sourceUnit":{"$ref":"24"},"sourceKey":"assigned","destinationUnit":{"$ref":"134"},"destinationKey":"enter","guid":"e5583417-2b42-4542-9323-57ee3ea0d0ae","$type":"Bolt.ControlConnection"},{"sourceUnit":{"$ref":"121"},"sourceKey":"assigned","destinationUnit":{"$ref":"160"},"destinationKey":"enter","guid":"5d7274af-f7d5-4a79-9063-2608a7d753d3","$type":"Bolt.ControlConnection"},{"sourceUnit":{"$ref":"160"},"sourceKey":"exit","destinationUnit":{"$ref":"147"},"destinationKey":"assign","guid":"cb5bd427-4156-44f2-8cc0-288b429c54e6","$type":"Bolt.ControlConnection"},{"sourceUnit":{"$ref":"63"},"sourceKey":"ifTrue","destinationUnit":{"$ref":"137"},"destinationKey":"assign","guid":"72144a86-6f28-4dac-8374-4ab07476f194","$type":"Bolt.ControlConnection"},{"sourceUnit":{"$ref":"63"},"sourceKey":"ifFalse","destinationUnit":{"$ref":"52"},"destinationKey":"assign","guid":"4d55151e-cdaf-453d-bbe8-e636f9e9e54a","$type":"Bolt.ControlConnection"},{"sourceUnit":{"$ref":"154"},"sourceKey":"value","destinationUnit":{"$ref":"52"},"destinationKey":"target","guid":"38312133-3775-415e-aaf4-5312755d4ee0","$type":"Bolt.ValueConnection"},{"sourceUnit":{"$ref":"19"},"sourceKey":"result","destinationUnit":{"$ref":"121"},"destinationKey":"input","guid":"2f24d57d-d49c-48b4-a2f0-383f562e23db","$type":"Bolt.ValueConnection"},{"sourceUnit":{"$ref":"28"},"sourceKey":"value","destinationUnit":{"$ref":"94"},"destinationKey":"target","guid":"60bb9467-b10e-4056-bf60-fd43f82297cf","$type":"Bolt.ValueConnection"},{"sourceUnit":{"$ref":"35"},"sourceKey":"output","destinationUnit":{"$ref":"123"},"destinationKey":"%layerMask","guid":"c173dd79-022e-46ca-9d65-6b045827f0f5","$type":"Bolt.ValueConnection"},{"sourceUnit":{"$ref":"14"},"sourceKey":"result","destinationUnit":{"$ref":"123"},"destinationKey":"%ray","guid":"9dc2cb40-2594-4476-bfe2-8fe25069b99c","$type":"Bolt.ValueConnection"},{"sourceUnit":{"$ref":"160"},"sourceKey":"result","destinationUnit":{"$ref":"147"},"destinationKey":"input","guid":"83578ce2-bf7b-4c6d-97ea-810c9ed339db","$type":"Bolt.ValueConnection"},{"sourceUnit":{"$ref":"82"},"sourceKey":"result","destinationUnit":{"$ref":"129"},"destinationKey":"condition","guid":"b2789146-0247-481e-893e-006b515352a1","$type":"Bolt.ValueConnection"},{"sourceUnit":{"$ref":"48"},"sourceKey":"value","destinationUnit":{"$ref":"151"},"destinationKey":"target","guid":"92f722e9-8373-4f3f-b564-0fe9703efd83","$type":"Bolt.ValueConnection"},{"sourceUnit":{"$ref":"156"},"sourceKey":"value","destinationUnit":{"$ref":"131"},"destinationKey":"target","guid":"8fa74005-cb2c-4301-ae30-7000da2e4092","$type":"Bolt.ValueConnection"},{"sourceUnit":{"$ref":"26"},"sourceKey":"quotient","destinationUnit":{"$ref":"111"},"destinationKey":"input","guid":"4bdc06f8-9751-4615-a124-54e5b2230bb5","$type":"Bolt.ValueConnection"},{"sourceUnit":{"$ref":"123"},"sourceKey":"&hitInfo","destinationUnit":{"$ref":"37"},"destinationKey":"target","guid":"282ec480-9a74-4932-848d-269a30b6b982","$type":"Bolt.ValueConnection"},{"sourceUnit":{"$ref":"131"},"sourceKey":"value","destinationUnit":{"$ref":"42"},"destinationKey":"%s","guid":"693c462a-e805-4031-a0e7-f16f1a54d645","$type":"Bolt.ValueConnection"},{"sourceUnit":{"$ref":"55"},"sourceKey":"output","destinationUnit":{"$ref":"134"},"destinationKey":"%name","guid":"d434d96b-eb14-42ed-834c-e56c6cf0f719","$type":"Bolt.ValueConnection"},{"sourceUnit":{"$ref":"116"},"sourceKey":"value","destinationUnit":{"$ref":"14"},"destinationKey":"%pos","guid":"862c4446-98f5-4a48-88c8-75e3ae572553","$type":"Bolt.ValueConnection"},{"sourceUnit":{"$ref":"30"},"sourceKey":"value","destinationUnit":{"$ref":"63"},"destinationKey":"condition","guid":"c5e889db-d0c6-4c74-beb3-c34c93944d41","$type":"Bolt.ValueConnection"},{"sourceUnit":{"$ref":"108"},"sourceKey":"result","destinationUnit":{"$ref":"151"},"destinationKey":"input","guid":"434e45bb-878a-444b-a8c2-e200366018e1","$type":"Bolt.ValueConnection"},{"sourceUnit":{"$ref":"163"},"sourceKey":"sum","destinationUnit":{"$ref":"45"},"destinationKey":"target","guid":"457311c8-b228-4a8f-acfe-b8ce25d2e65b","$type":"Bolt.ValueConnection"},{"sourceUnit":{"$ref":"140"},"sourceKey":"result","destinationUnit":{"$ref":"24"},"destinationKey":"input","guid":"3e6753e6-f63e-4a76-a271-c33e52ac3757","$type":"Bolt.ValueConnection"},{"sourceUnit":{"$ref":"105"},"sourceKey":"result","destinationUnit":{"$ref":"84"},"destinationKey":"target","guid":"683fa9d1-f7f2-4885-a702-bcbe4685d95c","$type":"Bolt.ValueConnection"},{"sourceUnit":{"$ref":"37"},"sourceKey":"value","destinationUnit":{"$ref":"145"},"destinationKey":"target","guid":"8a15c1bb-7f56-43f2-b110-5ba72ed6acf9","$type":"Bolt.ValueConnection"},{"sourceUnit":{"$ref":"134"},"sourceKey":"result","destinationUnit":{"$ref":"90"},"destinationKey":"input","guid":"099b5dc0-224b-4b93-ac11-d742258b3c01","$type":"Bolt.ValueConnection"},{"sourceUnit":{"$ref":"76"},"sourceKey":"value","destinationUnit":{"$ref":"68"},"destinationKey":"target","guid":"af2bc952-d23f-4cc6-b516-0b27efd3bb30","$type":"Bolt.ValueConnection"},{"sourceUnit":{"$ref":"71"},"sourceKey":"value","destinationUnit":{"$ref":"65"},"destinationKey":"target","guid":"d20f3e95-aee4-477b-9f0e-a137be1f91e0","$type":"Bolt.ValueConnection"},{"sourceUnit":{"$ref":"32"},"sourceKey":"result","destinationUnit":{"$ref":"82"},"destinationKey":"a","guid":"20ffdaa3-f357-4f5a-8e86-7933d101657d","$type":"Bolt.ValueConnection"},{"sourceUnit":{"$ref":"143"},"sourceKey":"output","destinationUnit":{"$ref":"140"},"destinationKey":"%name","guid":"eb6bda0c-0e2d-4e5e-98bd-35ca79149ed0","$type":"Bolt.ValueConnection"},{"sourceUnit":{"$ref":"57"},"sourceKey":"value","destinationUnit":{"$ref":"97"},"destinationKey":"target","guid":"9a133159-de12-4f16-949e-69175e29c6d8","$type":"Bolt.ValueConnection"},{"sourceUnit":{"$ref":"22"},"sourceKey":"output","destinationUnit":{"$ref":"19"},"destinationKey":"%name","guid":"a4a00ec7-f2d1-4fb6-b4c0-31e417eb4d90","$type":"Bolt.ValueConnection"},{"sourceUnit":{"$ref":"45"},"sourceKey":"result","destinationUnit":{"$ref":"113"},"destinationKey":"input","guid":"810c0e03-5080-40c8-a835-cfa51e517336","$type":"Bolt.ValueConnection"},{"sourceUnit":{"$ref":"145"},"sourceKey":"gameObject","destinationUnit":{"$ref":"126"},"destinationKey":"%obj","guid":"f81fff38-7ac8-43d7-85f7-5c9b27ea0b9d","$type":"Bolt.ValueConnection"},{"sourceUnit":{"$ref":"84"},"sourceKey":"value","destinationUnit":{"$ref":"92"},"destinationKey":"input","guid":"d23ea289-5f89-4aae-b05b-6e02fecfb810","$type":"Bolt.ValueConnection"},{"sourceUnit":{"$ref":"111"},"sourceKey":"output","destinationUnit":{"$ref":"108"},"destinationKey":"target","guid":"f87c5686-eb6f-4c5b-b305-c31419611f1e","$type":"Bolt.ValueConnection"},{"sourceUnit":{"$ref":"158"},"sourceKey":"value","destinationUnit":{"$ref":"113"},"destinationKey":"target","guid":"fd4a1c39-7f54-4b2a-b3c5-24308814a027","$type":"Bolt.ValueConnection"},{"sourceUnit":{"$ref":"42"},"sourceKey":"&result","destinationUnit":{"$ref":"163"},"destinationKey":"a","guid":"e18018eb-73eb-4035-a9d2-76df77ec8cfb","$type":"Bolt.ValueConnection"},{"sourceUnit":{"$ref":"50"},"sourceKey":"value","destinationUnit":{"$ref":"102"},"destinationKey":"target","guid":"d1e3da64-e524-4797-98f4-bd6650a2b0e3","$type":"Bolt.ValueConnection"},{"sourceUnit":{"$ref":"59"},"sourceKey":"value","destinationUnit":{"$ref":"61"},"destinationKey":"condition","guid":"6fd5bdc9-c29a-4ba2-936b-e360c2167ba8","$type":"Bolt.ValueConnection"},{"sourceUnit":{"$ref":"165"},"sourceKey":"output","destinationUnit":{"$ref":"160"},"destinationKey":"%name","guid":"70323562-da5c-40da-9110-32c5c1951160","$type":"Bolt.ValueConnection"},{"sourceUnit":{"$ref":"28"},"sourceKey":"value","destinationUnit":{"$ref":"87"},"destinationKey":"target","guid":"e5f4df8d-b499-409d-97a4-51c6133ff258","$type":"Bolt.ValueConnection"},{"sourceUnit":{"$ref":"123"},"sourceKey":"result","destinationUnit":{"$ref":"82"},"destinationKey":"b","guid":"d131a001-fd92-480d-a176-e48a89482499","$type":"Bolt.ValueConnection"},{"sourceUnit":{"$ref":"154"},"sourceKey":"value","destinationUnit":{"$ref":"137"},"destinationKey":"target","guid":"e9c7b53b-17c5-4bdf-9be1-54c07ddadc18","$type":"Bolt.ValueConnection"},{"sourceUnit":{"$ref":"71"},"sourceKey":"value","destinationUnit":{"$ref":"73"},"destinationKey":"target","guid":"db0c10e6-d131-4a8c-bc38-3ccaab028c1a","$type":"Bolt.ValueConnection"},{"sourceUnit":{"$ref":"163"},"sourceKey":"sum","destinationUnit":{"$ref":"26"},"destinationKey":"dividend","guid":"ad1e2284-0552-43bf-8050-0ec07905fcc9","$type":"Bolt.ValueConnection"},{"sourceUnit":{"$ref":"149"},"sourceKey":"output","destinationUnit":{"$ref":"105"},"destinationKey":"%name","guid":"a7d3fbb3-70ff-49de-8efc-962d60b479aa","$type":"Bolt.ValueConnection"},{"sourceUnit":{"$ref":"78"},"sourceKey":"value","destinationUnit":{"$ref":"80"},"destinationKey":"condition","guid":"9d5bfff3-74f4-4a97-b63b-890e28e4ddcd","$type":"Bolt.ValueConnection"}],"$version":"A"}}'
    _objectReferences:
    - {fileID: 21300000, guid: 52dafe8acfed144ab885e97fea58a5f6, type: 3}
    - {fileID: 21300000, guid: 9b9cb5eddf516ae478be598e7ce53376, type: 3}
    - {fileID: 21300000, guid: da0a80e929be03a4f827152267544595, type: 3}
    - {fileID: 21300000, guid: da0a80e929be03a4f827152267544595, type: 3}
    - {fileID: 21300000, guid: 9b9cb5eddf516ae478be598e7ce53376, type: 3}
    - {fileID: 21300000, guid: 97fe81404a17a472db7845c367666095, type: 3}
